<?xml version="1.0" encoding="UTF-8" standalone="no"?>
<!-- Created with Inkscape (http://www.inkscape.org/) -->

<svg
   xmlns:dc="http://purl.org/dc/elements/1.1/"
   xmlns:cc="http://creativecommons.org/ns#"
   xmlns:rdf="http://www.w3.org/1999/02/22-rdf-syntax-ns#"
   xmlns:svg="http://www.w3.org/2000/svg"
   xmlns="http://www.w3.org/2000/svg"
   xmlns:xlink="http://www.w3.org/1999/xlink"
   xmlns:sodipodi="http://sodipodi.sourceforge.net/DTD/sodipodi-0.dtd"
   xmlns:inkscape="http://www.inkscape.org/namespaces/inkscape"
   width="69.372444mm"
   height="16.215677mm"
   viewBox="0 0 69.372446 16.215677"
   version="1.1"
   id="svg6614"
   inkscape:version="0.92.3 (2405546, 2018-03-11)"
   sodipodi:docname="budget.svg">
  <defs
     id="defs6608">
    <clipPath
       id="clipPath9132"
       clipPathUnits="userSpaceOnUse">
      <path
         inkscape:connector-curvature="0"
         id="path9130"
         d="m 323.428,136.003 -0.618,-34.432 c -0.04,-2.322 1.809,-4.236 4.13,-4.279 v 0 l 174.751,-3.125 c 2.322,-0.042 4.235,1.805 4.275,4.128 v 0 l 13.489,34.202 c 0.041,2.32 -1.806,4.235 -4.126,4.275 v 0 l -187.623,3.359 c -0.024,0 -0.049,0.001 -0.073,0.001 v 0 c -2.288,0 -4.164,-1.832 -4.205,-4.129" />
    </clipPath>
    <linearGradient
       id="linearGradient9142"
       spreadMethod="pad"
       gradientTransform="matrix(-1.9e-6,-44.07534,-44.07534,1.9e-6,421.13281,138.71875)"
       gradientUnits="userSpaceOnUse"
       y2="0"
       x2="1"
       y1="0"
       x1="0">
      <stop
         id="stop9138"
         offset="0"
         style="stop-opacity:1;stop-color:#469ba4" />
      <stop
         id="stop9140"
         offset="1"
         style="stop-opacity:1;stop-color:#a2c9cb" />
    </linearGradient>
    <clipPath
       id="clipPath9132-3"
       clipPathUnits="userSpaceOnUse">
      <path
         inkscape:connector-curvature="0"
         id="path9130-6"
         d="m 323.428,136.003 -0.618,-34.432 c -0.04,-2.322 1.809,-4.236 4.13,-4.279 v 0 l 174.751,-3.125 c 2.322,-0.042 4.235,1.805 4.275,4.128 v 0 l 13.489,34.202 c 0.041,2.32 -1.806,4.235 -4.126,4.275 v 0 l -187.623,3.359 c -0.024,0 -0.049,0.001 -0.073,0.001 v 0 c -2.288,0 -4.164,-1.832 -4.205,-4.129" />
    </clipPath>
    <clipPath
       id="clipPath9132-35"
       clipPathUnits="userSpaceOnUse">
      <path
         inkscape:connector-curvature="0"
         id="path9130-62"
         d="m 323.428,136.003 -0.618,-34.432 c -0.04,-2.322 1.809,-4.236 4.13,-4.279 v 0 l 174.751,-3.125 c 2.322,-0.042 4.235,1.805 4.275,4.128 v 0 l 13.489,34.202 c 0.041,2.32 -1.806,4.235 -4.126,4.275 v 0 l -187.623,3.359 c -0.024,0 -0.049,0.001 -0.073,0.001 v 0 c -2.288,0 -4.164,-1.832 -4.205,-4.129" />
    </clipPath>
    <linearGradient
       inkscape:collect="always"
       xlink:href="#linearGradient9142"
       id="linearGradient7199"
       gradientUnits="userSpaceOnUse"
       gradientTransform="matrix(-1.9e-6,-44.07534,-44.07534,1.9e-6,421.13281,138.71875)"
       x1="0"
       y1="0"
       x2="1"
       y2="0"
       spreadMethod="pad" />
  </defs>
  <sodipodi:namedview
     id="base"
     pagecolor="#ffffff"
     bordercolor="#666666"
     borderopacity="1.0"
     inkscape:pageopacity="0.0"
     inkscape:pageshadow="2"
     inkscape:zoom="0.35"
     inkscape:cx="-209.54056"
     inkscape:cy="110.7887"
     inkscape:document-units="mm"
     inkscape:current-layer="layer1"
     showgrid="false"
     fit-margin-top="0"
     fit-margin-left="0"
     fit-margin-right="0"
     fit-margin-bottom="0"
     inkscape:window-width="1366"
     inkscape:window-height="713"
     inkscape:window-x="0"
     inkscape:window-y="0"
     inkscape:window-maximized="1" />
  <metadata
     id="metadata6611">
    <rdf:RDF>
      <cc:Work
         rdf:about="">
        <dc:format>image/svg+xml</dc:format>
        <dc:type
           rdf:resource="http://purl.org/dc/dcmitype/StillImage" />
        <dc:title></dc:title>
      </cc:Work>
    </rdf:RDF>
  </metadata>
  <g
     inkscape:label="Layer 1"
     inkscape:groupmode="layer"
     id="layer1"
     transform="translate(-32.762367,-161.93051)">
    <g
       transform="translate(-101.82277,-484.52495)"
       id="g7264">
      <g
         transform="matrix(0.35277777,0,0,-0.35277777,20.70517,695.89091)"
         id="g9126">
        <g
           clip-path="url(#clipPath9132-35)"
           id="g9128">
          <g
             id="g9134">
            <g
               id="g9136">
              <path
                 inkscape:connector-curvature="0"
                 id="path9144"
                 style="fill:url(#linearGradient7199);stroke:none"
                 d="m 323.428,136.003 -0.618,-34.432 c -0.04,-2.322 1.809,-4.236 4.13,-4.279 v 0 l 174.751,-3.125 c 2.322,-0.042 4.235,1.805 4.275,4.128 v 0 l 13.489,34.202 c 0.041,2.32 -1.806,4.235 -4.126,4.275 v 0 l -187.623,3.359 c -0.024,0 -0.049,0.001 -0.073,0.001 v 0 c -2.288,0 -4.164,-1.832 -4.205,-4.129" />
            </g>
          </g>
        </g>
      </g>
      <text
         y="655.56024"
         x="136.21301"
         id="text9148"
         style="font-variant:normal;font-weight:bold;font-stretch:normal;font-size:4.29436398px;font-family:'Caviar Dreams';-inkscape-font-specification:CaviarDreams-Bold;writing-mode:lr-tb;fill:#ffffff;fill-opacity:1;fill-rule:nonzero;stroke:none;stroke-width:0.35277778">
        <tspan
           style="stroke-width:0.35277778"
           id="tspan9146"
           sodipodi:role="line"
           y="655.56024"
           x="136.21301 138.53841 139.94954 142.7151 143.89175 146.53709 149.18242 150.77133 153.74303 156.65761 159.09251 162.02986 164.9758 167.62112 169.21004 170.69589">Project budget :</tspan>
      </text>
      <text
         y="655.56024"
         x="173.31544"
         id="text9152"
         style="font-variant:normal;font-weight:normal;font-stretch:normal;font-size:4.29436398px;font-family:'Caviar Dreams';-inkscape-font-specification:CaviarDreams;writing-mode:lr-tb;fill:#ffffff;fill-opacity:1;fill-rule:nonzero;stroke:none;stroke-width:0.35277778">
        <tspan
           style="stroke-width:0.35277778"
           id="tspan9150"
           sodipodi:role="line"
           y="655.56024"
           x="173.31544 175.93501 178.55457 181.17413 181.97289 184.59245 187.21201 189.83157 190.62602 193.24559 195.86516 197.351 200.3914">855.172,79 €</tspan>
      </text>
    </g>
  </g>
</svg>
